Buff River Inconnu mortality rates and catch curves
…
# A tibble: 38 × 2
# Groups:   year [38]
   year  data             
   <chr> <list>           
 1 1947  <tibble [16 × 2]>
 2 1948  <tibble [16 × 2]>
 3 1955  <tibble [18 × 2]>
 4 1956  <tibble [21 × 2]>
 5 1976  <tibble [19 × 2]>
 6 1977  <tibble [18 × 2]>
 7 1978  <tibble [19 × 2]>
 8 1979  <tibble [18 × 2]>
 9 1980  <tibble [19 × 2]>
10 1981  <tibble [18 × 2]>
# ℹ 28 more rows
…
